…
# keep only second half of the Array name
mapping$Array <- sub(".*_", "", mapping$Array)

# Convert Array column to numeric and reorder
mapping <- mapping %>%
  mutate(Array = as.numeric(Array)) %>%
  arrange(Array)

# now match this to the metadata file
metadata <- readxl::read_xlsx(paste0(dir,"/metadata.xlsx"),sheet="metadata")
metadata$perc_mapping <- as.numeric(mapping$perc_mapping)
metadata[,c("Sample_ID","Population","Origin","perc_mapping")]
```

    ## # A tibble: 39 × 4
    ##    Sample_ID Population Origin perc_mapping
    ##    <chr>     <chr>      <chr>         <dbl>
    ##  1 Drake1    Drake      CA             37.0
    ##  2 Drake2    Drake      CA             56.4
    ##  3 Drake3    Drake      CA             44.7
    ##  4 Drake4    Drake      CA             31.6
    ##  5 Drake5    Drake      CA             67.2
    ##  6 Drake6    Drake      CA             44.6
    ##  7 Drake7    Drake      CA             42.2
    ##  8 Drake8    Drake      CA             43.6
    ##  9 Drake9    Drake      CA             46.2
    ## 10 Pet1      Pet        CA             43.5
    ## # ℹ 29 more rows
…
# paged_table(metadata)

# make sure all files are present
all(file.exists(metadata$Count_file))
```

    ## [1] TRUE

``` r
# if necessary - subset to only include samples where the file exists
metadata <- metadata[file.exists(metadata$Count_file),]
metadata[,c("Sample_ID","Population","Origin","perc_mapping")]
```

    ## # A tibble: 39 × 4
    ##    Sample_ID Population Origin perc_mapping
    ##    <chr>     <chr>      <fct>         <dbl>
    ##  1 Drake1    Drake      CA             37.0
    ##  2 Drake2    Drake      CA             56.4
    ##  3 Drake3    Drake      CA             44.7
    ##  4 Drake4    Drake      CA             31.6
    ##  5 Drake5    Drake      CA             67.2
    ##  6 Drake6    Drake      CA             44.6
    ##  7 Drake7    Drake      CA             42.2
    ##  8 Drake8    Drake      CA             43.6
    ##  9 Drake9    Drake      CA             46.2
    ## 10 Pet1      Pet        CA             43.5
    ## # ℹ 29 more rows
…
